complete_project.sim/sim_1/behav/xsim/tb_TOP_MODULE.vcd
$date
   Wed Jun 17 22:57:30 2026
$end
$version
  2019.1
$end
$timescale
  1ps
$end
$scope module tb_TOP_MODULE $end
$var reg 1 ! clk $end
$var reg 1 " reset $end
$var reg 32 # pc_o [31:0] $end
$var reg 32 $ instruction_o [31:0] $end
$var reg 32 % alu_result_o [31:0] $end
$var reg 32 & write_back_o [31:0] $end
$var reg 1 ' RegWrite_o $end
$var reg 1 ( MemRead_o $end
$var reg 1 ) MemWrite_o $end
$var reg 1 * Branch_o $end
$var reg 1 + ALUSrc_o $end
$var reg 2 , ALUOp_o [1:0] $end
$var reg 2 - MemtoReg_o [1:0] $end
$var reg 32 . rs1_data_o [31:0] $end
$var reg 32 / rs2_data_o [31:0] $end
$var reg 32 0 imm_out_o [31:0] $end
$var reg 4 1 alu_ctrl_o [3:0] $end
$var reg 1 2 alu_zero_o $end
$var reg 1 3 alu_lt_o $end
$var reg 1 4 alu_ltu_o $end
$var reg 1 5 take_branch_o $end
$var reg 32 6 branch_target_o [31:0] $end
$var reg 32 7 jal_target_o [31:0] $end
$var reg 32 8 jalr_target_o [31:0] $end
$var reg 1 9 PCSrc_o $end
$scope module dut $end
$var wire 1 : clk $end
$var wire 1 ; reset $end
$var reg 32 # pc_o [31:0] $end
$var reg 32 $ instruction_o [31:0] $end
$var reg 32 % alu_result_o [31:0] $end
$var reg 32 & write_back_o [31:0] $end
$var reg 1 ' RegWrite_o $end
$var reg 1 ( MemRead_o $end
$var reg 1 ) MemWrite_o $end
$var reg 1 * Branch_o $end
$var reg 1 + ALUSrc_o $end
$var reg 2 , ALUOp_o [1:0] $end
$var reg 2 - MemtoReg_o [1:0] $end
$var reg 32 . rs1_data_o [31:0] $end
$var reg 32 / rs2_data_o [31:0] $end
$var reg 32 0 imm_out_o [31:0] $end
$var reg 4 1 alu_ctrl_o [3:0] $end
$var reg 1 2 alu_zero_o $end
$var reg 1 3 alu_lt_o $end
$var reg 1 4 alu_ltu_o $end
$var reg 1 5 take_branch_o $end
$var reg 32 6 branch_target_o [31:0] $end
$var reg 32 7 jal_target_o [31:0] $end
$var reg 32 8 jalr_target_o [31:0] $end
$var reg 1 9 PCSrc_o $end
$var reg 32 < pc [31:0] $end
$var reg 32 = instruction [31:0] $end
$var reg 32 > rd1 [31:0] $end
$var reg 32 ? rd2 [31:0] $end
$var reg 32 @ imm_out [31:0] $end
$var reg 32 A alu_result [31:0] $end
$var reg 32 B read_data [31:0] $end
$var reg 32 C write_back [31:0] $end
$var reg 1 D Branch $end
$var reg 1 E MemRead $end
$var reg 1 F MemWrite $end
$var reg 1 G ALUSrc $end
$var reg 1 H RegWrite $end
$var reg 1 I zero $end
$var reg 1 J lt $end
$var reg 1 K ltu $end
$var reg 1 L take_branch $end
$var reg 2 M ALUOp [1:0] $end
$var reg 4 N ALUCtrl [3:0] $end
$var reg 2 O MemtoReg [1:0] $end
$var reg 32 P pc_plus_4 [31:0] $end
$var reg 32 Q imm_shift [31:0] $end
$var reg 32 R branch_target [31:0] $end
$var reg 32 S jal_target [31:0] $end
$var reg 32 T jalr_target [31:0] $end
$var reg 32 U next_addr [31:0] $end
$var reg 1 V PCSrc $end
$var reg 1 W is_jal $end
$var reg 1 X is_jalr $end
$var reg 1 Y is_mul $end
$var reg 1 Z mul_start $end
$var reg 1 [ mul_busy $end
$var reg 1 \ mul_done $end
$var reg 64 ] mul_result [63:0] $end
$var reg 1 ^ pc_enable $end
$var parameter 7 _ OP_JAL [6:0] $end
$var parameter 7 ` OP_JALR [6:0] $end
$scope module pc_inst $end
$var wire 1 : clk $end
$var wire 1 ; reset $end
$var wire 1 a enable $end
$var wire 32 b next_addr [31:0] $end
$var wire 1 c PCSrc $end
$var reg 32 < PC [31:0] $end
$upscope $end
$scope module imem $end
$var wire 32 d addr [31:0] $end
$var reg 32 = dataR [31:0] $end
$var parameter 32 e length [31:0] $end
$var parameter 32 f width [31:0] $end
$scope begin Block33_2 $end
$var reg 32 g i $end
$upscope $end
$upscope $end
$scope module cu $end
$var wire 7 h opcode [6:0] $end
$var reg 1 D Branch $end
$var reg 1 E MemRead $end
$var reg 2 O MemtoReg [1:0] $end
$var reg 2 M ALUOp [1:0] $end
$var reg 1 F MemWrite $end
$var reg 1 G ALUSrc $end
$var reg 1 H RegWrite $end
$var parameter 7 i OP_ITYPE [6:0] $end
$var parameter 7 j OP_LOAD [6:0] $end
$var parameter 7 k OP_STORE [6:0] $end
$var parameter 7 l OP_RTYPE [6:0] $end
$var parameter 7 m OP_JAL [6:0] $end
$var parameter 7 n OP_JALR [6:0] $end
$var parameter 7 o OP_BRANCH [6:0] $end
$var parameter 2 p ALUOP_ITYPE [1:0] $end
$var parameter 2 q ALUOP_LOAD [1:0] $end
$var parameter 2 r ALUOP_STORE [1:0] $end
$var parameter 2 s ALUOP_RTYPE [1:0] $end
$var parameter 2 t ALUOP_JUMP [1:0] $end
$var parameter 2 u ALUOP_BRANCH [1:0] $end
$upscope $end
$scope module rf $end
$var wire 1 : clk $end
$var wire 1 v we $end
$var wire 5 w rs1 [4:0] $end
$var wire 5 x rs2 [4:0] $end
$var wire 5 y rsw [4:0] $end
$var wire 32 z dataw [31:0] $end
$var reg 32 > data1 [31:0] $end
$var reg 32 ? data2 [31:0] $end
$var parameter 32 { DATA_WIDTH [31:0] $end
$var parameter 32 | NUM_REGS [31:0] $end
$var parameter 32 } e [31:0] $end
$scope begin Block37_5 $end
$var reg 32 ~ i $end
$upscope $end
$upscope $end
$scope module imm_gen $end
$var wire 32 !! instruction [31:0] $end
$var reg 32 @ imm_out [31:0] $end
$var reg 7 "! opcode [6:0] $end
$upscope $end
$scope module alu_ctrl $end
$var wire 2 #! ALUOp [1:0] $end
$var wire 3 $! funct3 [2:0] $end
$var wire 7 %! funct7 [6:0] $end
$var reg 4 N ALUCtrl [3:0] $end
$var parameter 4 &! ALU_ADD [3:0] $end
$var parameter 4 '! ALU_SUB [3:0] $end
$var parameter 4 (! ALU_AND [3:0] $end
$var parameter 4 )! ALU_OR [3:0] $end
$var parameter 4 *! ALU_XOR [3:0] $end
$var parameter 4 +! ALU_SLT [3:0] $end
$var parameter 4 ,! ALU_SLTU [3:0] $end
$var parameter 4 -! ALU_SLL [3:0] $end
$var parameter 4 .! ALU_SRL [3:0] $end
$var parameter 4 /! ALU_SRA [3:0] $end
$upscope $end
$scope module alu $end
$var wire 32 0! A [31:0] $end
$var wire 32 1! B [31:0] $end
$var wire 4 2! ALUCtrl [3:0] $end
$var reg 32 A result [31:0] $end
$var reg 1 I zero $end
$var reg 1 J lt $end
$var reg 1 K ltu $end
$var parameter 32 3! WIDTH [31:0] $end
$var parameter 4 4! ALU_ADD [3:0] $end
$var parameter 4 5! ALU_SUB [3:0] $end
$var parameter 4 6! ALU_AND [3:0] $end
$var parameter 4 7! ALU_OR [3:0] $end
$var parameter 4 8! ALU_XOR [3:0] $end
$var parameter 4 9! ALU_SLT [3:0] $end
$var parameter 4 :! ALU_SLTU [3:0] $end
$var parameter 4 ;! ALU_SLL [3:0] $end
$var parameter 4 <! ALU_SRL [3:0] $end
$var parameter 4 =! ALU_SRA [3:0] $end
$upscope $end
$scope module branch_unit $end
$var wire 1 >! Branch $end
$var wire 3 ?! funct3 [2:0] $end
$var wire 1 @! zero $end
$var wire 1 A! lt $end
$var wire 1 B! ltu $end
$var reg 1 L take_branch $end
$upscope $end
$scope module data_mem $end
$var wire 1 : clk $end
$var wire 1 C! mem_read $end
$var wire 1 D! mem_write $end
$var wire 6 E! addr [5:0] $end
$var wire 32 F! write_data [31:0] $end
$var wire 3 G! func3 [2:0] $end
$var reg 32 B read_data [31:0] $end
$var parameter 32 H! DATA_WIDTH [31:0] $end
$var parameter 32 I! MEM_DEPTH [31:0] $end
$upscope $end
$scope module mul $end
$var wire 1 : clk $end
$var wire 1 ; rst $end
$var wire 1 J! start $end
$var wire 2 K! op_sel [1:0] $end
$var wire 32 L! A [31:0] $end
$var wire 32 M! B [31:0] $end
$var reg 64 ] result [63:0] $end
$var reg 1 [ busy $end
$var reg 1 \ done $end
$var reg 2 N! state [1:0] $end
$var reg 2 O! next_state [1:0] $end
$var reg 32 P! a_reg [31:0] $end
$var reg 32 Q! b_reg [31:0] $end
$var reg 64 R! acc [63:0] $end
$var reg 6 S! cnt [5:0] $end
$var reg 1 T! sign_a $end
$var reg 1 U! sign_b $end
$var reg 1 V! result_negative $end
$var reg 32 W! abs_a [31:0] $end
$var reg 32 X! abs_b [31:0] $end
$upscope $end
$upscope $end
$upscope $end
$enddefinitions $end
#0
$dumpvars
0!
b10100000000000010010011 !!
1"
b10011 "!
b0 #
b11 #!
b10100000000000010010011 $
b0 $!
b101 %
b0 %!
b101 &
b0 &!
1'
b1 '!
0(
b10 (!
0)
b11 )!
0*
b100 *!
1+
b101 +!
b11 ,
b110 ,!
b0 -
b111 -!
b0 .
b1000 .!
b0 /
b1001 /!
b101 0
b0 0!
b0 1
b101 1!
02
b0 2!
13
b100000 3!
14
b0 4!
05
b1 5!
b1110 6
b10 6!
b1010 7
b11 7!
b100 8
b100 8!
09
b101 9!
0:
b110 :!
1;
b111 ;!
b0 <
b1000 <!
b10100000000000010010011 =
b1001 =!
b0 >
0>!
b0 ?
b0 ?!
b101 @
0@!
b101 A
1A!
b0 B
1B!
b101 C
0C!
0D
0D!
0E
b101 E!
0F
b0 F!
1G
bz G!
1H
b100000 H!
0I
b10000 I!
1J
0J!
1K
b11 K!
0L
b0 L!
b11 M
b0 M!
b0 N
bx N!
b0 O
b0 O!
b100 P
bx P!
b1010 Q
bx Q!
b1110 R
bx R!
b1010 S
bx S!
b100 T
0T!
b1110 U
0U!
0V
xV!
0W
b0 W!
0X
b0 X!
0Y
0Z
0[
0\
bx ]
1^
b1101111 _
b1100111 `
1a
b1110 b
0c
b0 d
b100000 e
b100000 f
b100000 g
b10011 h
b10011 i
b11 j
b100011 k
b110011 l
b1101111 m
b1100111 n
b1100011 o
b11 p
b0 q
b0 r
b10 s
b0 t
b1 u
1v
b0 w
b101 x
b1 y
b101 z
b100000 {
b100000 |
b101 }
b100000 ~
$end
#5000
1!
1:
b0 >
b0 ?
b101 C
b0 N!
b0 P!
b0 Q!
b0 R!
b0 S!
0V!
0[
0\
b0 ]
#10000
0!
0:
#15000
1!
1:
#20000
0!
0:
#25000
1!
1:
#30000
0!
0:
#35000
1!
b101000000000000100010011 !!
0"
b100 #
b101000000000000100010011 $
b1010 %
b1010 &
b1010 0
b1010 1!
b11100 6
b11000 7
b1010 8
1:
0;
b100 <
b101000000000000100010011 =
b0 ?
b1010 @
b1010 A
b0 B
b1010 C
b1010 E!
0I
1J
1K
b1000 P
b10100 Q
b11100 R
b11000 S
b1010 T
b11100 U
b11100 b
b100 d
b1010 x
b10 y
b1010 z
#40000
0!
0:
#45000
1!
b10001000001000000110110011 !!
b110011 "!
b1000 #
b10 #!
b10001000001000000110110011 $
b1111 %
b1 %!
b1111 &
0'
0+
b10 ,
b101 .
b1010 /
b0 0
b101 0!
b1010 1!
b1100 6
b1000 7
b100 8
1:
b1000 <
b10001000001000000110110011 =
b101 >
b1010 ?
b0 @
b1111 A
b0 B
b1111 C
0D
0E
b1111 E!
0F
b1010 F!
0G
1H
0I
1J
1J!
1K
b101 L!
b10 M
b1010 M!
b0 N
b0 O
b1 O!
b1100 P
b0 Q
b1100 R
b1000 S
b100 T
b1100 U
0W
b101 W!
0X
b1010 X!
1Y
1Z
0[
0\
b1100 b
b1000 d
b110011 h
0v
b1 w
b10 x
b11 y
b1111 z
#50000
0!
0:
#55000
1!
b1000001000000110110011 !!
b1100 #
b1000001000000110110011 $
b0 %!
1'
b10000 6
b1100 7
1:
b1100 <
b1000001000000110110011 =
b0 @
b1111 C
0C!
0J!
b0 N
b1 N!
b10000 P
b101 P!
b1010 Q!
b10000 R
b1100 S
b10000 U
0Y
0Z
1[
0\
0^
0a
b10000 b
b1100 d
1v
#60000
0!
0:
#65000
1!
1:
b101 >
b1010 ?
0C!
b1010 P!
b101 Q!
b1 S!
0Z
1[
0\
0^
#70000
0!
0:
#75000
1!
1:
0C!
b10100 P!
b10 Q!
b1010 R!
b10 S!
0Z
1[
0\
0^
#80000
0!
0:
#85000
1!
1:
0C!
b101000 P!
b1 Q!
b11 S!
0Z
1[
0\
0^
#90000
0!
0:
#95000
1!
1:
0C!
b1010000 P!
b0 Q!
b110010 R!
b100 S!
0Z
1[
0\
0^
#100000
0!
0:
#105000
1!
1:
0C!
b10100000 P!
b101 S!
0Z
1[
0\
0^
#110000
0!
0:
#115000
1!
1:
0C!
b101000000 P!
b110 S!
0Z
1[
0\
0^
#120000
0!
0:
#125000
1!
1:
0C!
b1010000000 P!
b111 S!
0Z
1[
0\
0^
#130000
0!
0:
#135000
1!
1:
0C!
b10100000000 P!
b1000 S!
0Z
1[
0\
0^
#140000
0!
0:
#145000
1!
1:
0C!
b101000000000 P!
b1001 S!
0Z
1[
0\
0^
#150000
0!
0:
#155000
1!
1:
0C!
b1010000000000 P!
b1010 S!
0Z
1[
0\
0^
#160000
0!
0:
#165000
1!
1:
0C!
b10100000000000 P!
b1011 S!
0Z
1[
0\
0^
#170000
0!
0:
#175000
1!
1:
0C!
b101000000000000 P!
b1100 S!
0Z
1[
0\
0^
#180000
0!
0:
#185000
1!
1:
0C!
b1010000000000000 P!
b1101 S!
0Z
1[
0\
0^
#190000
0!
0:
#195000
1!
1:
0C!
b10100000000000000 P!
b1110 S!
0Z
1[
0\
0^
#200000
0!
0:
#205000
1!
1:
0C!
b101000000000000000 P!
b1111 S!
0Z
1[
0\
0^
#210000
0!
0:
#215000
1!
1:
0C!
b1010000000000000000 P!
b10000 S!
0Z
1[
0\
0^
#220000
0!
0:
#225000
1!
1:
0C!
b10100000000000000000 P!
b10001 S!
0Z
1[
0\
0^
#230000
0!
0:
#235000
1!
1:
0C!
b101000000000000000000 P!
b10010 S!
0Z
1[
0\
0^
#240000
0!
0:
#245000
1!
1:
0C!
b1010000000000000000000 P!
b10011 S!
0Z
1[
0\
0^
#250000
0!
0:
#255000
1!
1:
0C!
b10100000000000000000000 P!
b10100 S!
0Z
1[
0\
0^
#260000
0!
0:
#265000
1!
1:
0C!
b101000000000000000000000 P!
b10101 S!
0Z
1[
0\
0^
#270000
0!
0:
#275000
1!
1:
0C!
b1010000000000000000000000 P!
b10110 S!
0Z
1[
0\
0^
#280000
0!
0:
#285000
1!
1:
0C!
b10100000000000000000000000 P!
b10111 S!
0Z
1[
0\
0^
#290000
0!
0:
#295000
1!
1:
0C!
b101000000000000000000000000 P!
b11000 S!
0Z
1[
0\
0^
#300000
0!
0:
#305000
1!
1:
0C!
b1010000000000000000000000000 P!
b11001 S!
0Z
1[
0\
0^
#310000
0!
0:
#315000
1!
1:
0C!
b10100000000000000000000000000 P!
b11010 S!
0Z
1[
0\
0^
#320000
0!
0:
#325000
1!
1:
0C!
b101000000000000000000000000000 P!
b11011 S!
0Z
1[
0\
0^
#330000
0!
0:
#335000
1!
1:
0C!
b1010000000000000000000000000000 P!
b11100 S!
0Z
1[
0\
0^
#340000
0!
0:
#345000
1!
1:
0C!
b10100000000000000000000000000000 P!
b11101 S!
0Z
1[
0\
0^
#350000
0!
0:
#355000
1!
1:
0C!
b1000000000000000000000000000000 P!
b11110 S!
0Z
1[
0\
0^
#360000
0!
0:
#365000
1!
1:
0C!
b10 O!
b10000000000000000000000000000000 P!
b11111 S!
0Z
1[
0\
0^
#370000
0!
0:
#375000
1!
b0 &
1:
b0 C
0C!
b10 N!
b0 O!
b0 P!
b100000 S!
0Z
0[
1\
1^
1a
b0 z
#380000
0!
0:
#385000
1!
b1000000000100010000001000110011 !!
b10000 #
b1000000000100010000001000110011 $
b101 %
b100000 %!
b101 &
b1010 .
b101 /
b1010 0!
b1 1
b101 1!
b1 2!
03
04
b10100 6
b10000 7
b1010 8
1:
b10000 <
b1000000000100010000001000110011 =
b1010 >
b101 ?
b0 @
b101 A
0A!
b0 B
0B!
b101 C
b101 E!
b101 F!
0I
0J
0K
0L
b1010 L!
b101 M!
b1 N
b0 N!
b10100 P
b10100 R
b10000 S
b1010 T
b10100 U
b1010 W!
b101 X!
0Y
0[
0\
b110010 ]
b10100 b
b10000 d
b10 w
b1 x
b100 y
b101 z
#390000
0!
0:
#395000
1!
b111100011111001010010011 !!
b10011 "!
b10100 #
b11 #!
b111100011111001010010011 $
b111 $!
b0 %
b0 %!
b0 &
1+
b11 ,
b0 .
b0 /
b1111 0
b0 0!
b10 1
b1111 1!
12
b10 2!
13
14
b110110 6
b110010 7
b1110 8
1:
b10100 <
b111100011111001010010011 =
b0 >
b0 ?
b111 ?!
b1111 @
1@!
b0 A
1A!
b0 B
1B!
b0 C
0D
0E
b0 E!
0F
b0 F!
1G
1H
1I
1J
1K
0L
b0 L!
b11 M
b0 M!
b10 N
b0 O
b11000 P
b11110 Q
b110110 R
b110010 S
b1110 T
b110110 U
0W
b0 W!
0X
b0 X!
0Y
b110110 b
b10100 d
b10011 h
b11 w
b1111 x
b101 y
b0 z
#400000
0!
0:
#405000
1!
b1111000000011110001100010011 !!
b11000 #
b1111000000011110001100010011 $
b110 $!
b11110000 %
b111 %!
b11110000 &
b11110000 0
b11 1
b11110000 1!
02
b11 2!
b111111100 6
b111111000 7
b11110000 8
1:
b11000 <
b1111000000011110001100010011 =
b0 ?
b110 ?!
b11110000 @
0@!
b11110000 A
b0 B
b11110000 C
b110000 E!
0I
1J
1K
0L
b11 N
b11100 P
b111100000 Q
b111111100 R
b111111000 S
b11110000 T
b111111100 U
0Y
b111111100 b
b11000 d
b10000 x
b110 y
b11110000 z
#410000
0!
0:
#415000
1!
b1111111100011100001110010011 !!
b11100 #
b1111111100011100001110010011 $
b100 $!
b11111111 %
b11111111 &
b11111111 0
b100 1
b11111111 1!
b100 2!
b1000011110 6
b1000011010 7
b11111110 8
1:
b11100 <
b1111111100011100001110010011 =
b0 >
b0 ?
b100 ?!
b11111111 @
b11111111 A
b0 B
b11111111 C
b111111 E!
0I
1J
1K
0L
b100 N
b100000 P
b111111110 Q
b1000011110 R
b1000011010 S
b11111110 T
b1000011110 U
0Y
b1000011110 b
b11100 d
b11111 x
b111 y
b11111111 z
#420000
0!
0:
#425000
1!
b100001001010000010011 !!
b100000 #
b100001001010000010011 $
b1 $!
b1010 %
b0 %!
b1010 &
b101 .
b101 /
b1 0
b101 0!
b111 1
b1 1!
b111 2!
03
04
b100110 6
b100010 7
b110 8
1:
b100000 <
b100001001010000010011 =
b101 >
b101 ?
b1 ?!
b1 @
b1010 A
0A!
b0 B
0B!
b1010 C
b1010 E!
b101 F!
0I
0J
0K
0L
b101 L!
b101 M!
b111 N
b100100 P
b10 Q
b100110 R
b100010 S
b110 T
b100110 U
b101 W!
b101 X!
0Y
b100110 b
b100000 d
b1 w
b1 x
b1000 y
b1010 z
#430000
0!
0:
#435000
1!
b100010101010010010011 !!
b100100 #
b100010101010010010011 $
b101 $!
b101 %
b101 &
b1010 .
b1010 0!
b1000 1
b1000 2!
b101010 6
b100110 7
b1010 8
1:
b100100 <
b100010101010010010011 =
b1010 >
b101 ?
b101 ?!
b1 @
b101 A
b0 B
b101 C
b101 E!
0I
0J
0K
0L
b1010 L!
b1000 N
b101000 P
b101010 R
b100110 S
b1010 T
b101010 U
b1010 W!
0Y
b101010 b
b100100 d
b10 w
b1001 y
b101 z
#440000
0!
0:
#445000
1!
b1000000000100010101010100010011 !!
b101000 #
b1000000000100010101010100010011 $
b100000 %!
b10000000001 0
b1001 1
b10000000001 1!
b1001 2!
13
14
b100000101110 6
b100000101010 7
b10000001010 8
1:
b101000 <
b1000000000100010101010100010011 =
b1010 >
b101 ?
b10000000001 @
b101 A
1A!
1B!
b101 C
b101 E!
0I
1J
1K
0L
b1001 N
b101100 P
b100000000010 Q
b100000101110 R
b100000101010 S
b10000001010 T
b100000101110 U
0Y
b100000101110 b
b101000 d
b1010 y
#450000
0!
0:
#455000
1!
b1000001010010110110011 !!
b110011 "!
b101100 #
b10 #!
b1000001010010110110011 $
b10 $!
b1 %
b0 %!
b1 &
0+
b10 ,
b101 .
b1010 /
b0 0
b101 0!
b101 1
b1010 1!
b101 2!
b110000 6
b101100 7
b100 8
1:
b101100 <
b1000001010010110110011 =
b101 >
b1010 ?
b10 ?!
b0 @
b1 A
b0 B
b1 C
0D
0E
b1 E!
0F
b1010 F!
0G
1H
0I
1J
1K
0L
b101 L!
b10 M
b1010 M!
b101 N
b0 O
b110000 P
b0 Q
b110000 R
b101100 S
b100 T
b110000 U
0W
b101 W!
0X
b1010 X!
0Y
b110000 b
b101100 d
b110011 h
b1 w
b10 x
b1011 y
b1 z
#460000
0!
0:
#465000
1!
b1000001011011000110011 !!
b110000 #
b1000001011011000110011 $
b11 $!
b110 1
b110 2!
b110100 6
b110000 7
1:
b110000 <
b1000001011011000110011 =
b101 >
b1010 ?
b11 ?!
b0 @
b1 A
b1 C
b1 E!
0I
1J
1K
0L
b110 N
b110100 P
b110100 R
b110000 S
b110100 U
0Y
b110100 b
b110000 d
b1100 y
#470000
0!
0:
#475000
1!
b1100000010000000100011 !!
b100011 "!
b110100 #
b0 #!
b1100000010000000100011 $
b10 $!
b0 %
b0 &
0'
1)
1+
b0 ,
b0 .
b0 /
b0 0!
b0 1
b0 1!
12
b0 2!
03
04
b111000 6
b110100 7
b0 8
1:
b110100 <
b1100000010000000100011 =
b0 >
b0 ?
b10 ?!
b0 @
1@!
b0 A
0A!
b0 B
0B!
b0 C
0D
1D!
0E
b0 E!
1F
b0 F!
1G
0H
1I
0J
0K
0L
b0 L!
b0 M
b0 M!
b0 N
b0 O
b111000 P
b111000 R
b110100 S
b0 T
b111000 U
0W
b0 W!
0X
b0 X!
0Y
b111000 b
b110100 d
b100011 h
0v
b0 w
b11 x
b0 y
b0 z
#480000
0!
0:
#485000
1!
b10011010000011 !!
b11 "!
b111000 #
b10011010000011 $
1'
1(
0)
b1 -
b0 1!
b111100 6
b111000 7
1:
b111000 <
b10011010000011 =
b0 ?
b0 @
b0 B
b0 C
1C!
0D
0D!
1E
0F
1G
1H
b0 M
b1 O
b111100 P
b111100 R
b111000 S
b111100 U
0W
0X
0Y
b111100 b
b111000 d
b11 h
1v
b0 x
b1101 y
#490000
0!
0:
#495000
1!
b110100011000001001100011 !!
b1100011 "!
b111100 #
b1 #!
b110100011000001001100011 $
b0 $!
0'
0(
1*
0+
b1 ,
b0 -
b10 0
b1 1
b0 1!
b1 2!
15
b1000100 6
b1000000 7
b10 8
19
1:
b111100 <
b110100011000001001100011 =
b0 >
1>!
b0 ?
b0 ?!
b10 @
b0 A
b0 B
b0 C
0C!
1D
0E
0F
0G
0H
1I
0J
0K
1L
b1 M
b1 N
b0 O
b1000000 P
b100 Q
b1000100 R
b1000000 S
b10 T
b1000100 U
1V
0W
0X
0Y
b1000100 b
1c
b111100 d
b1100011 h
0v
b11 w
b1101 x
b100 y
#500000
0!
0:
#505000
1!
b1000000000011100010011 !!
b10011 "!
b1000100 #
b11 #!
b1000000000011100010011 $
b10 %
b10 &
1'
0*
1+
b11 ,
b1010 /
b0 1
b10 1!
02
b0 2!
13
14
05
b1001100 6
b1001000 7
09
1:
b1000100 <
b1000000000011100010011 =
b0 >
0>!
b1010 ?
b10 @
0@!
b10 A
1A!
b0 B
1B!
b10 C
0D
0E
b10 E!
0F
b1010 F!
1G
1H
0I
1J
1K
0L
b11 M
b1010 M!
b0 N
b0 O
b1001000 P
b1001100 R
b1001000 S
b1001100 U
0V
0W
0X
b1010 X!
0Y
b1001100 b
0c
b1000100 d
b10011 h
1v
b0 w
b10 x
b1110 y
b10 z
#510000
0!
0:
#515000
1!
b1000001100000001100011 !!
b1100011 "!
b1001000 #
b1 #!
b1000001100000001100011 $
b100 $!
b11111111111111111111111111111011 %
b11111111111111111111111111111011 &
0'
1*
0+
b1 ,
b101 .
b0 0
b101 0!
b1 1
b1010 1!
b1 2!
15
b1001100 6
b1001000 7
b100 8
19
1:
b1001000 <
b1000001100000001100011 =
b101 >
1>!
b1010 ?
b100 ?!
b0 @
b11111111111111111111111111111011 A
b0 B
b11111111111111111111111111111011 C
1D
0E
b111011 E!
0F
0G
0H
0I
1J
1K
1L
b101 L!
b1 M
b1 N
b0 O
b1001100 P
b0 Q
b1001100 R
b1001000 S
b100 T
b1001100 U
1V
0W
b101 W!
0X
0Y
b1001100 b
1c
b1001000 d
b1100011 h
0v
b1 w
b0 y
b11111111111111111111111111111011 z
#520000
0!
0:
#525000
1!
b100010101000001100011 !!
b1001100 #
b100010101000001100011 $
b101 $!
b101 %
b101 &
b1010 .
b101 /
b1010 0!
b101 1!
03
04
15
b1010000 6
b1001100 7
b1010 8
19
1:
b1001100 <
b100010101000001100011 =
b1010 >
b101 ?
b101 ?!
b0 @
b101 A
0A!
b0 B
0B!
b101 C
b101 E!
b101 F!
0I
0J
0K
1L
b1010 L!
b101 M!
b1 N
b1010000 P
b1010000 R
b1001100 S
b1010 T
b1010000 U
1V
b1010 W!
b101 X!
0Y
b1010000 b
1c
b1001100 d
b10 w
b1 x
b101 z
#530000
0!
0:
#535000
1!
b1000001110000001100011 !!
b1010000 #
b1000001110000001100011 $
b110 $!
b11111111111111111111111111111011 %
b11111111111111111111111111111011 &
b101 .
b1010 /
b101 0!
b1010 1!
13
14
15
b1010100 6
b1010000 7
b100 8
19
1:
b1010000 <
b1000001110000001100011 =
b101 >
b1010 ?
b110 ?!
b0 @
b11111111111111111111111111111011 A
1A!
b0 B
1B!
b11111111111111111111111111111011 C
b111011 E!
b1010 F!
0I
1J
1K
1L
b101 L!
b1010 M!
b1 N
b1010100 P
b1010100 R
b1010000 S
b100 T
b1010100 U
1V
b101 W!
b1010 X!
0Y
b1010100 b
1c
b1010000 d
b1 w
b10 x
b11111111111111111111111111111011 z
#540000
0!
0:
#545000
1!
b100010111000001100011 !!
b1010100 #
b100010111000001100011 $
b111 $!
b101 %
b101 &
b1010 .
b101 /
b1010 0!
b101 1!
03
04
15
b1011000 6
b1010100 7
b1010 8
19
1:
b1010100 <
b100010111000001100011 =
b1010 >
b101 ?
b111 ?!
b0 @
b101 A
0A!
b0 B
0B!
b101 C
b101 E!
b101 F!
0I
0J
0K
1L
b1010 L!
b101 M!
b1 N
b1011000 P
b1011000 R
b1010100 S
b1010 T
b1011000 U
1V
b1010 W!
b101 X!
0Y
b1011000 b
1c
b1010100 d
b10 w
b1 x
b101 z
#550000
0!
0:
#555000
1!
b100000000000011111101111 !!
b1101111 "!
b1011000 #
b0 #!
b100000000000011111101111 $
b0 $!
b1010 %
b1011100 &
1'
0*
b0 ,
b10 -
b0 .
b1010 /
b100 0
b0 0!
b0 1
b1010 1!
b0 2!
13
14
05
b1100100 6
b1100000 7
b100 8
1:
b1011000 <
b100000000000011111101111 =
b0 >
0>!
b1010 ?
b0 ?!
b100 @
b1010 A
1A!
b0 B
1B!
b1011100 C
0D
0E
b1010 E!
0F
b1010 F!
0G
1H
0I
1J
1K
0L
b0 L!
b0 M
b1010 M!
b0 N
b10 O
b1011100 P
b1000 Q
b1100100 R
b1100000 S
b100 T
b1100000 U
1V
1W
b0 W!
0X
b1010 X!
0Y
b1100000 b
b1011000 d
b1101111 h
1v
b0 w
b1000 x
b1111 y
b1011100 z
#560000
0!
0:
#565000
1!
b10000000000100000010011 !!
b10011 "!
b1100000 #
b11 #!
b10000000000100000010011 $
b100 %
b100 &
1+
b11 ,
b0 -
b101 /
b100 1!
b1101100 6
b1101000 7
09
1:
b1100000 <
b10000000000100000010011 =
b0 >
b101 ?
b100 @
b100 A
b0 B
b100 C
0D
0E
b100 E!
0F
b101 F!
1G
1H
0I
1J
1K
b11 M
b101 M!
b0 N
b0 O
b1100100 P
b1101100 R
b1101000 S
b1101100 U
0V
0W
0X
b101 X!
0Y
b1101100 b
0c
b1100000 d
b10011 h
b100 x
b10000 y
b100 z
#570000
0!
0:
#575000
1!
b1100111 !!
b1100111 "!
b1100100 #
b0 #!
b1100111 $
b0 %
b1101000 &
b0 ,
b10 -
b0 /
b0 0
b0 1!
12
03
04
b1101000 6
b1100100 7
b0 8
19
1:
b1100100 <
b1100111 =
b0 >
b0 ?
b0 @
1@!
b0 A
0A!
b0 B
0B!
b1101000 C
0D
0E
b0 E!
0F
b0 F!
1G
1H
1I
0J
0K
0L
b0 M
b0 M!
b0 N
b10 O
b1101000 P
b0 Q
b1101000 R
b1100100 S
b0 T
b0 U
1V
0W
1X
b0 X!
0Y
b0 b
1c
b1100100 d
b1100111 h
b0 x
b0 y
b1101000 z
#580000
0!
0:
#585000
1!
b10100000000000010010011 !!
b10011 "!
b0 #
b11 #!
b10100000000000010010011 $
b101 %
b101 &
b11 ,
b0 -
b101 0
b101 1!
02
13
14
b1110 6
b1010 7
b100 8
09
1:
b0 <
b10100000000000010010011 =
b0 ?
b101 @
0@!
b101 A
1A!
b0 B
1B!
b101 C
0D
0E
b101 E!
0F
1G
1H
0I
1J
1K
0L
b11 M
b0 N
b0 O
b100 P
b1010 Q
b1110 R
b1010 S
b100 T
b1110 U
0V
0W
0X
0Y
b1110 b
0c
b0 d
b10011 h
b101 x
b1 y
b101 z
#590000
0!
0:
#595000
1!
b101000000000000100010011 !!
b100 #
b101000000000000100010011 $
b1010 %
b1010 &
b101 /
b1010 0
b1010 1!
b11100 6
b11000 7
b1010 8
1:
b100 <
b101000000000000100010011 =
b101 ?
b1010 @
b1010 A
b0 B
b1010 C
b1010 E!
b101 F!
0I
1J
1K
b101 M!
b1000 P
b10100 Q
b11100 R
b11000 S
b1010 T
b11100 U
b101 X!
b11100 b
b100 d
b1010 x
b10 y
b1010 z
#600000
0!
0:
